{
	"В какую школу ты ходил?": {
			"a_trueOT": "в 133-тюю",
			"b_falseOT": "в 121-вую",
			"c_falseOT": "в 95-тую"
	},
	"Во сколько нужно идти в школу?": {
			"a_falseOT": "в 5 лет",
			"b_falseOT": "в 6 лет",
			"c_trueOT": "в 7 лет"
	},
	"Сколько вам было, когда вы заколчили школу?": {
			"a_falseOT": "16 лет",				
			"b_falseOT": "17 лет",
			"c_trueOT": "18 лет"
	}
}